{
  "code": 0,
  "message": "0",
  "ttl": 1,
  "data": {
    "page": 1,
    "pagesize": 20,
    "numResults": 1000,
    "numPages": 50,
    "pageinfo": {
      "video": {
        "total": 1000,
        "numResults": 1000,
        "pages": 50
      },
      "media_bangumi": {
        "total": 9,
        "numResults": 9,
        "pages": 1
      }
    },
    "result": [
      {
        "result_type": "article",
        "data": [{
          "category_id": 26,
          "category_name": "数码",
          "comment_url": "",
          "desc": "",
          "id": 21014304,
          "image_urls": [
            "//i1.hdslb.com/bfs/article/e138e2d536aef424cd939c776e06d46d2a17fbfb.png"
          ],
          "is_comment": 0,
          "is_fold": false,
          "is_rk1": false,
          "like": 24,
          "mid": 29184220,
          "pub_time": 1672983906,
          "rank_index": 7,
          "rank_offset": 6,
          "reply": 2,
          "spread_id": 0,
          "sub_type": 0,
          "template_id": 4,
          "title": "在线免费<em class=\"keyword\">看</em>电影的网站哪个好？这两个影视网站绝对是最佳推荐",
          "type": "article",
          "version": "",
          "view": 10167
        }]
      }

    ]
  }
}